INDEX VERSION 1.130+Z:\workspace\.metadata\.plugins\org.eclipse.jdt.core
633912588.index
3395514475.index
836203631.index
1793024890.index
2333693906.index
2122396436.index
576906761.index
111131114.index
603295145.index
2920634722.index
3855629932.index
