<?xml version="1.0" encoding="UTF-8"?>
<session version="1.0">
<refactoring comment="Copy element &apos;Saisie.java&apos; to &apos;Banque/src/Pack&apos;&#x0D;&#x0A;- Original project: &apos;TP POO&apos;&#x0D;&#x0A;- Destination element: &apos;Banque/src/Pack&apos;&#x0D;&#x0A;- Original element: &apos;Pack.Saisie.java&apos;" description="Copy compilation unit" destination="=Banque/src&lt;Pack" element1="/src&lt;Pack{Saisie.java" files="0" flags="589830" folders="0" id="org.eclipse.jdt.ui.copy" policy="org.eclipse.jdt.ui.copyResources" stamp="1554104409210" units="1" version="1.0"/>
</session>